{
	"seq" : {
		"varname" : "UID",
		"cancermath" : false,
		"selected" : false
	},
	"Age atRegistration" : {
		"varname" : "ageInput",
		"cancermath" : true,
		"selected" : true,
		"valuemap" : {
			"func" : "round"
		}
	},
	"arm" : {
		"varname" : "chemotherapy",
		"cancermath" : true,
		"selected" : true,
		"valuemap" : {
			"lookup" : {
				"1=CA 600/60+T" : 3,
				"2=CA 600/60" : 3,
				"3=CA 600/75+T" : 3,
				"4=CA 600/75" : 3,
				"5=CA 600/90+T" : 3,
				"6=CA 600/90" : 3					
			}
		},
		"_comment" : "all treatment arms with T are changed from 4 to 3 (marked as 1st gen treatment) for purpose of setting up phantom arm."
	},
	"TumorSize(cm)" : {
		"varname" : "diameter",
		"cancermath" : true,
		"selected" : true,
		"valuemap" : {
			"func" : "equateEmptyToZero"
		}
	},
	"Number ofPositiveNodes" : [
	{
		"varname" : "nodesKnown",
		"cancermath" : true,
		"selected" : true,
		"valuemap" : {
			"func" : "notEmpty"
		}
	},
	{
		"varname" : "nodenumber",
		"cancermath" : true,
		"selected" : true,
		"valuemap" : {
			"func" : "asNumeric"
		}
	}
	],
	"ERStatus" : [
	{
		"varname" : "erstatus",
		"cancermath" : true,
		"selected" : true,
		"valuemap" : {
			"lookup" : {
				"2=Positive" : 1,
				"1=Negative" : 2
			}
		}
	},
	{
		"varname" : "endotherapy",
		"cancermath" : true,
		"selected" : true,
		"valuemap" : {
			"lookup" : {
				"2=Positive" : 1,
				"1=Negative" : 0
			}
		}
	}
	],
	"PgRStatus" : {
		"varname" : "prstatus",
		"cancermath" : true,
		"selected" : true,
		"valuemap" : {
			"lookup" : {
				"2=Positive" : 1,
				"1=Negative" : 2
			}
		}
	},
	"SurvivalStatus" : {
		"varname" : "deceased",
		"cancermath" : false,
		"selected" : false,
		"valuemap" : {
			"lookup" : {
				"1=dead" : 1,
				"0=alive" : 0
			}
		}
	},
	"SurvivalTime(months)" : {
		"varname" : "survival",
		"cancermath" : false,
		"selected" : false,
		"valuemap" : {
			"func" : "round"
		}
	}

}
